84:6e:b1:00:28:04-1
84:6e:b1:00:28:04-2
84:6e:b1:00:24:7f-1
84:6e:b1:00:24:7f-2
84:6e:b1:00:24:c2-1
84:6e:b1:00:24:c2-2
84:6e:b1:00:24:a1-1
84:6e:b1:00:24:a1-2
84:6e:b1:00:37:55-1
84:6e:b1:00:37:3d-1
84:6e:b1:00:37:b0-1
84:6e:b1:00:37:59-1
84:6e:b1:00:37:b5-1
84:6e:b1:00:34:a2-1
84:6e:b1:00:3f:04-1
84:6e:b1:00:35:88-1
84:6e:b1:00:3f:10-1
84:6e:b1:00:26:83-2
84:6e:b1:00:23:ef-2
84:6e:b1:00:24:7d-2
84:6e:b1:00:24:3b-2
84:6e:b1:00:20:0b-2
84:6e:b1:00:24:4a-2
84:6e:b1:00:23:c1-2
84:6e:b1:00:24:69-2
84:6e:b1:00:24:22-2
84:6e:b1:00:23:fe-2
84:6e:b1:00:24:48-2
84:6e:b1:00:24:1f-2
84:6e:b1:00:24:4c-2
84:6e:b1:00:23:e0-2
84:6e:b1:00:23:e8-2
84:6e:b1:00:22:8c-1
84:6e:b1:00:3f:19-1
84:6e:b1:00:22:8c-2
84:6e:b1:00:23:e8-1
84:6e:b1:00:23:e0-1
84:6e:b1:00:24:4c-1
84:6e:b1:00:24:1f-1
84:6e:b1:00:24:48-1
84:6e:b1:00:23:fe-1
84:6e:b1:00:24:22-1
84:6e:b1:00:24:69-1
84:6e:b1:00:23:c1-1
84:6e:b1:00:24:4a-1
84:6e:b1:00:20:0b-1
84:6e:b1:00:24:3b-1
84:6e:b1:00:24:7d-1
84:6e:b1:00:23:ef-1
84:6e:b1:00:3f:2c-1
84:6e:b1:00:3f:14-1
84:6e:b1:00:3f:09-1
84:6e:b1:00:3c:dc-1
84:6e:b1:00:3c:d3-1
84:6e:b1:00:3c:de-1
84:6e:b1:00:25:f6-2
84:6e:b1:00:24:5d-2
84:6e:b1:00:24:56-2
84:6e:b1:00:27:1b-2
84:6e:b1:00:24:8e-2
84:6e:b1:00:24:58-2
84:6e:b1:00:24:55-2
84:6e:b1:00:24:59-2
84:6e:b1:00:24:85-2
84:6e:b1:00:24:37-2
84:6e:b1:00:24:a8-2
84:6e:b1:00:24:7a-2
84:6e:b1:00:24:ae-2
84:6e:b1:00:23:fb-2
84:6e:b1:00:23:fc-2
84:6e:b1:00:24:8f-2
84:6e:b1:00:3f:40-1
84:6e:b1:00:24:8f-1
84:6e:b1:00:23:fc-1
84:6e:b1:00:23:fb-1
84:6e:b1:00:24:ae-1
84:6e:b1:00:24:7a-1
84:6e:b1:00:24:a8-1
84:6e:b1:00:24:37-1
84:6e:b1:00:24:85-1
84:6e:b1:00:24:59-1
84:6e:b1:00:24:55-1
84:6e:b1:00:24:58-1
84:6e:b1:00:24:8e-1
84:6e:b1:00:27:1b-1
84:6e:b1:00:24:56-1
84:6e:b1:00:24:5d-1
84:6e:b1:00:3c:d8-1
84:6e:b1:00:3c:ce-1
84:6e:b1:00:3c:c6-1
84:6e:b1:00:40:85-1
84:6e:b1:00:35:23-1
84:6e:b1:00:3e:ad-1
84:6e:b1:00:35:40-1
84:6e:b1:00:21:6f-2
84:6e:b1:00:26:67-2
84:6e:b1:00:27:1f-2
84:6e:b1:00:22:46-2
84:6e:b1:00:26:5f-2
84:6e:b1:00:21:d3-2
84:6e:b1:00:21:d1-2
84:6e:b1:00:21:e6-2
84:6e:b1:00:37:97-1
84:6e:b1:00:27:61-1
84:6e:b1:00:27:61-2
84:6e:b1:00:35:6a-1
84:6e:b1:00:21:86-1
84:6e:b1:00:21:86-2
84:6e:b1:00:21:5d-1
84:6e:b1:00:21:59-1
84:6e:b1:00:21:59-2
84:6e:b1:00:37:a1-1
84:6e:b1:00:1f:a7-1
84:6e:b1:00:1f:a7-2
84:6e:b1:00:21:62-1
84:6e:b1:00:21:62-2
84:6e:b1:00:25:68-1
84:6e:b1:00:21:55-1
84:6e:b1:00:36:a5-1
84:6e:b1:00:35:0c-1
84:6e:b1:00:36:7f-1
84:6e:b1:00:3e:c0-1
84:6e:b1:00:27:2d-2
84:6e:b1:00:34:bd-1
84:6e:b1:00:34:92-1
84:6e:b1:00:35:42-1
84:6e:b1:00:35:98-1
84:6e:b1:00:36:63-1
84:6e:b1:00:35:9b-1
84:6e:b1:00:36:70-1
84:6e:b1:00:36:95-1
84:6e:b1:00:26:af-2
84:6e:b1:00:25:b7-1
84:6e:b1:00:40:74-1
84:6e:b1:00:3d:e2-1
84:6e:b1:00:40:8c-1
84:6e:b1:00:40:89-1
84:6e:b1:00:3e:8b-1
84:6e:b1:00:40:93-1
84:6e:b1:00:40:a0-1
84:6e:b1:00:41:23-1
84:6e:b1:00:25:90-1
84:6e:b1:00:22:6f-1
84:6e:b1:00:25:13-2
84:6e:b1:00:25:13-1
84:6e:b1:00:25:c9-1
84:6e:b1:00:25:c9-2
84:6e:b1:00:25:a9-2
84:6e:b1:00:25:11-2
84:6e:b1:00:25:11-1
84:6e:b1:00:25:60-2
84:6e:b1:00:25:60-1
84:6e:b1:00:26:18-2
84:6e:b1:00:26:18-1
84:6e:b1:00:3d:2c-1
84:6e:b1:00:25:9a-1
84:6e:b1:00:25:4a-1
84:6e:b1:00:25:4a-2
84:6e:b1:00:26:31-1
84:6e:b1:00:26:31-2
84:6e:b1:00:25:b5-1
84:6e:b1:00:25:b5-2
84:6e:b1:00:22:60-1
84:6e:b1:00:22:60-2
84:6e:b1:00:25:be-1
84:6e:b1:00:25:be-2
84:6e:b1:00:25:9d-1
84:6e:b1:00:25:9d-2
84:6e:b1:00:25:b4-1
84:6e:b1:00:25:b4-2
84:6e:b1:00:27:d3-1
84:6e:b1:00:27:d3-2
84:6e:b1:00:25:94-1
84:6e:b1:00:25:94-2
84:6e:b1:00:25:9c-1
84:6e:b1:00:25:9c-2
84:6e:b1:00:28:16-1
84:6e:b1:00:27:b4-1
84:6e:b1:00:28:18-1
84:6e:b1:00:26:b2-1
84:6e:b1:00:35:97-1
84:6e:b1:00:36:cf-1
84:6e:b1:00:3f:67-1
84:6e:b1:00:22:7a-1
84:6e:b1:00:3e:7b-1
84:6e:b1:00:22:43-1
84:6e:b1:00:22:43-2
84:6e:b1:00:22:7a-2
84:6e:b1:00:36:87-1
84:6e:b1:00:35:21-1
84:6e:b1:00:3e:af-1
84:6e:b1:00:27:f5-1
84:6e:b1:00:27:f5-2
84:6e:b1:00:27:f7-1
84:6e:b1:00:26:b9-1
84:6e:b1:00:27:12-1
84:6e:b1:00:36:67-1
84:6e:b1:00:22:0e-2
84:6e:b1:00:22:4d-2
84:6e:b1:00:22:22-2
84:6e:b1:00:21:c9-2
84:6e:b1:00:22:10-2
84:6e:b1:00:21:b1-2
84:6e:b1:00:36:65-1
84:6e:b1:00:28:57-1
84:6e:b1:00:35:c8-1
84:6e:b1:00:36:8c-1
84:6e:b1:00:36:69-1
84:6e:b1:00:26:54-1
84:6e:b1:00:26:54-2
84:6e:b1:00:27:57-1
84:6e:b1:00:27:57-2
84:6e:b1:00:27:9d-1
84:6e:b1:00:27:9d-2
84:6e:b1:00:21:f6-1
84:6e:b1:00:21:f6-2
84:6e:b1:00:21:ac-1
84:6e:b1:00:21:ac-2
84:6e:b1:00:22:5b-1
84:6e:b1:00:22:5b-2
84:6e:b1:00:3e:c4-1
84:6e:b1:00:28:12-1
84:6e:b1:00:22:4b-1
84:6e:b1:00:28:0c-2
84:6e:b1:00:28:1d-1
84:6e:b1:00:35:56-1
84:6e:b1:00:28:1a-1
84:6e:b1:00:26:84-2
84:6e:b1:00:26:d7-2
84:6e:b1:00:26:ac-1
84:6e:b1:00:26:bc-2
84:6e:b1:00:22:7b-2
84:6e:b1:00:34:8f-1
84:6e:b1:00:34:81-1
84:6e:b1:00:27:a3-2
84:6e:b1:00:36:4d-1
84:6e:b1:00:34:93-1
84:6e:b1:00:3e:43-1
84:6e:b1:00:40:6c-1
84:6e:b1:00:27:2c-2
84:6e:b1:00:27:2c-1
84:6e:b1:00:27:a6-1
84:6e:b1:00:27:a6-2
84:6e:b1:00:27:b5-1
84:6e:b1:00:27:b5-2
84:6e:b1:00:22:45-1
84:6e:b1:00:22:45-2
84:6e:b1:00:36:a9-1
84:6e:b1:00:27:aa-1
84:6e:b1:00:27:0b-1
84:6e:b1:00:26:e9-1
84:6e:b1:00:26:e6-1
84:6e:b1:00:3f:b3-1
84:6e:b1:00:27:07-1
84:6e:b1:00:27:56-1
84:6e:b1:00:26:f2-1
84:6e:b1:00:26:ea-1
84:6e:b1:00:27:03-1
84:6e:b1:00:27:0f-1
84:6e:b1:00:37:64-1
84:6e:b1:00:37:51-1
84:6e:b1:00:26:c6-1
84:6e:b1:00:3f:c0-1
84:6e:b1:00:3f:58-1
