84:6e:b1:00:41:08-1
84:6e:b1:00:41:1b-1
84:6e:b1:00:3a:fd-1
84:6e:b1:00:3b:02-1
84:6e:b1:00:42:8f-1
84:6e:b1:00:40:ab-1
84:6e:b1:00:3a:f3-1
84:6e:b1:00:3b:04-1
84:6e:b1:00:3a:eb-1
84:6e:b1:00:3a:f2-1
84:6e:b1:00:3a:fc-1
84:6e:b1:00:3a:c2-1
84:6e:b1:00:42:98-1
84:6e:b1:00:3b:0b-1
84:6e:b1:00:0c:3c-1
84:6e:b1:00:3a:ff-1
84:6e:b1:00:3d:ef-1
84:6e:b1:00:3e:11-1
84:6e:b1:00:3d:f5-1
